[
    {
        "id": 0,
        "name": "Le musée des tissus de Lyon",
        "image":  "images/tissus.png",
        "url": "https://www.museedestissus.fr/",
        "items": [
            {
                "name": "Web",
                "url": "#"
            },
            {
                "name": "site vitrine",
                "url": "#"
            }
        ]
    },
    {
        "id": 1,
        "name": "ABStock, catalogue de livres en ligne",
        "image": "https://abstock.gitlab.io/search.png",
        "url": "#",
        "items": [
            {
                "name": "Web",
                "url": "#"
            },
            {
                "name": "base de données",
                "url": "#"
            }
        ]
    },
    {
        "id": 2,
        "name": "Abelujo, gestion de stock de librairies",
        "image": "http://abelujo.cc/lists-pdf-export_fr.png",
        "url": "#",
        "items": [
            {
                "name": "Web",
                "url": "#"
            },
            {
                "name": "base de données",
                "url": "#"
            }
        ]
    },
    {
        "id": 3,
        "name": "Contributions Open-Source",
        "image": "https://i.stack.imgur.com/5qq2G.png",
        "url": "https://github.com/vindarel",
        "items": [
            {
                "name": "librairies, logiciels, documentation, blog",
                "url": "#"
            }
        ]
    }

]
